mc23_13p6TeV.601348.PhPy8EG_tb_lep_antitop.deriv.DAOD_PHYS.e8514_s4159_r15224_p6266                    
mc23_13p6TeV.601348.PhPy8EG_tb_lep_antitop.deriv.DAOD_PHYS.e8514_s4162_r14622_p6266
mc23_13p6TeV.601349.PhPy8EG_tb_lep_top.deriv.DAOD_PHYS.e8514_s4159_r15224_p6266                        
mc23_13p6TeV.601349.PhPy8EG_tb_lep_top.deriv.DAOD_PHYS.e8514_s4162_r14622_p6266
mc23_13p6TeV.601350.PhPy8EG_tqb_lep_antitop.deriv.DAOD_PHYS.e8514_s4159_r15224_p6266                           
mc23_13p6TeV.601350.PhPy8EG_tqb_lep_antitop.deriv.DAOD_PHYS.e8514_s4162_r14622_p6266
mc23_13p6TeV.601351.PhPy8EG_tqb_lep_top.deriv.DAOD_PHYS.e8514_s4159_r15224_p6266                               
mc23_13p6TeV.601351.PhPy8EG_tqb_lep_top.deriv.DAOD_PHYS.e8514_s4162_r14622_p6266
mc23_13p6TeV.601352.PhPy8EG_tW_dyn_DR_incl_antitop.deriv.DAOD_PHYS.e8551_s4159_r15224_p6266                    
mc23_13p6TeV.601352.PhPy8EG_tW_dyn_DR_incl_antitop.deriv.DAOD_PHYS.e8551_s4162_r14622_p6266
mc23_13p6TeV.601353.PhPy8EG_tW_dyn_DR_dil_antitop.deriv.DAOD_PHYS.e8551_s4159_r15224_p6266                     
mc23_13p6TeV.601353.PhPy8EG_tW_dyn_DR_dil_antitop.deriv.DAOD_PHYS.e8551_s4162_r14622_p6266
mc23_13p6TeV.601354.PhPy8EG_tW_dyn_DR_dil_top.deriv.DAOD_PHYS.e8551_s4159_r15224_p6266                         
mc23_13p6TeV.601354.PhPy8EG_tW_dyn_DR_dil_top.deriv.DAOD_PHYS.e8551_s4162_r14622_p6266
mc23_13p6TeV.601355.PhPy8EG_tW_dyn_DR_incl_top.deriv.DAOD_PHYS.e8551_s4159_r15224_p6266                        
mc23_13p6TeV.601355.PhPy8EG_tW_dyn_DR_incl_top.deriv.DAOD_PHYS.e8551_s4162_r14622_p6266
mc23_13p6TeV.601229.PhPy8EG_A14_ttbar_hdamp258p75_SingleLep.deriv.DAOD_PHYS.e8514_s4159_r15530_p6266                    
mc23_13p6TeV.601229.PhPy8EG_A14_ttbar_hdamp258p75_SingleLep.deriv.DAOD_PHYS.e8514_s4162_r15540_p6266
mc23_13p6TeV.601230.PhPy8EG_A14_ttbar_hdamp258p75_dil.deriv.DAOD_PHYS.e8514_s4159_r15530_p6266                    
mc23_13p6TeV.601230.PhPy8EG_A14_ttbar_hdamp258p75_dil.deriv.DAOD_PHYS.e8514_s4162_r15540_p6266
mc23_13p6TeV.601237.PhPy8EG_A14_ttbar_hdamp258p75_allhad.deriv.DAOD_PHYS.e8514_s4159_r15530_p6266                 
mc23_13p6TeV.601237.PhPy8EG_A14_ttbar_hdamp258p75_allhad.deriv.DAOD_PHYS.e8514_s4162_r15540_p6266
mc23_13p6TeV.700996.Sh_2214_ttW_1Lfilter.deriv.DAOD_PHYSLITE.e8532_s4159_r15224_p6266
mc23_13p6TeV.700996.Sh_2214_ttW_1Lfilter.deriv.DAOD_PHYSLITE.e8532_s4162_r14622_p6266
mc23_13p6TeV.700997.Sh_2214_ttW_2Lfilter.deriv.DAOD_PHYSLITE.e8532_s4159_r15224_p6266
mc23_13p6TeV.700997.Sh_2214_ttW_2Lfilter.deriv.DAOD_PHYSLITE.e8532_s4162_r14622_p6266
mc23_13p6TeV.522024.aMCPy8EG_NNPDF30NLO_A14N23LO_ttee_run3.deriv.DAOD_PHYSLITE.e8558_s4159_r15224_p6266
mc23_13p6TeV.522024.aMCPy8EG_NNPDF30NLO_A14N23LO_ttee_run3.deriv.DAOD_PHYSLITE.e8558_s4162_r14622_p6266
mc23_13p6TeV.522028.aMCPy8EG_NNPDF30NLO_A14N23LO_ttmumu_run3.deriv.DAOD_PHYSLITE.e8558_s4159_r15224_p6266
mc23_13p6TeV.522028.aMCPy8EG_NNPDF30NLO_A14N23LO_ttmumu_run3.deriv.DAOD_PHYSLITE.e8558_s4162_r14622_p6266
mc23_13p6TeV.522036.aMCPy8EG_NNPDF30NLO_A14N23LO_ttZqq_run3.deriv.DAOD_PHYSLITE.e8558_s4159_r15224_p6266
mc23_13p6TeV.522036.aMCPy8EG_NNPDF30NLO_A14N23LO_ttZqq_run3.deriv.DAOD_PHYSLITE.e8558_s4162_r14622_p6266
mc23_13p6TeV.522032.aMCPy8EG_NNPDF30NLO_A14N23LO_tttautau_run3.deriv.DAOD_PHYSLITE.e8558_s4159_r15224_p6266
mc23_13p6TeV.522032.aMCPy8EG_NNPDF30NLO_A14N23LO_tttautau_run3.deriv.DAOD_PHYSLITE.e8558_s4162_r14622_p6266
mc23_13p6TeV.522040.aMCPy8EG_NNPDF30NLO_A14N23LO_ttZnunu_run3.deriv.DAOD_PHYSLITE.e8558_s4159_r15224_p6266
mc23_13p6TeV.522040.aMCPy8EG_NNPDF30NLO_A14N23LO_ttZnunu_run3.deriv.DAOD_PHYSLITE.e8558_s4162_r14622_p6266
