mc20_13TeV.545689.MGPy8EG_WpWmhjj_lvqqbbjj_EW8_LO_klp1.deriv.DAOD_PHYS.e8488_a907_r14859_p6490
mc20_13TeV.545689.MGPy8EG_WpWmhjj_lvqqbbjj_EW8_LO_klp1.deriv.DAOD_PHYS.e8488_a907_r14860_p6490
mc20_13TeV.545689.MGPy8EG_WpWmhjj_lvqqbbjj_EW8_LO_klp1.deriv.DAOD_PHYS.e8488_a907_r14861_p6490
mc20_13TeV.545689.MGPy8EG_WpWmhjj_lvqqbbjj_EW8_LO_klp1.deriv.DAOD_PHYS.e8488_e8455_a907_r14859_r14919_p6490
mc20_13TeV.545689.MGPy8EG_WpWmhjj_lvqqbbjj_EW8_LO_klp1.deriv.DAOD_PHYS.e8488_e8455_a907_r14860_r14919_p6490
mc20_13TeV.545689.MGPy8EG_WpWmhjj_lvqqbbjj_EW8_LO_klp1.deriv.DAOD_PHYS.e8488_e8455_a907_r14861_r14919_p6490
mc20_13TeV.545690.MGPy8EG_WpWmhjj_lvqqbbjj_EW8_LO_klp2.deriv.DAOD_PHYS.e8488_a907_r14859_p6490
mc20_13TeV.545690.MGPy8EG_WpWmhjj_lvqqbbjj_EW8_LO_klp2.deriv.DAOD_PHYS.e8488_a907_r14860_p6490
mc20_13TeV.545690.MGPy8EG_WpWmhjj_lvqqbbjj_EW8_LO_klp2.deriv.DAOD_PHYS.e8488_a907_r14861_p6490
mc20_13TeV.545690.MGPy8EG_WpWmhjj_lvqqbbjj_EW8_LO_klp2.deriv.DAOD_PHYS.e8488_e8455_a907_r14859_r14919_p6490
mc20_13TeV.545690.MGPy8EG_WpWmhjj_lvqqbbjj_EW8_LO_klp2.deriv.DAOD_PHYS.e8488_e8455_a907_r14860_r14919_p6490
mc20_13TeV.545690.MGPy8EG_WpWmhjj_lvqqbbjj_EW8_LO_klp2.deriv.DAOD_PHYS.e8488_e8455_a907_r14861_r14919_p6490
mc20_13TeV.545691.MGPy8EG_WpWmhjj_lvqqbbjj_EW8_LO_klp5.deriv.DAOD_PHYS.e8488_a907_r14859_p6490
mc20_13TeV.545691.MGPy8EG_WpWmhjj_lvqqbbjj_EW8_LO_klp5.deriv.DAOD_PHYS.e8488_a907_r14860_p6490
mc20_13TeV.545691.MGPy8EG_WpWmhjj_lvqqbbjj_EW8_LO_klp5.deriv.DAOD_PHYS.e8488_a907_r14861_p6490
mc20_13TeV.545691.MGPy8EG_WpWmhjj_lvqqbbjj_EW8_LO_klp5.deriv.DAOD_PHYS.e8488_e8455_a907_r14859_r14919_p6490
mc20_13TeV.545691.MGPy8EG_WpWmhjj_lvqqbbjj_EW8_LO_klp5.deriv.DAOD_PHYS.e8488_e8455_a907_r14860_r14919_p6490
mc20_13TeV.545691.MGPy8EG_WpWmhjj_lvqqbbjj_EW8_LO_klp5.deriv.DAOD_PHYS.e8488_e8455_a907_r14861_r14919_p6490
mc20_13TeV.545692.MGPy8EG_WpWmhjj_lvqqbbjj_EW8_LO_klp10.deriv.DAOD_PHYS.e8488_a907_r14859_p6490
mc20_13TeV.545692.MGPy8EG_WpWmhjj_lvqqbbjj_EW8_LO_klp10.deriv.DAOD_PHYS.e8488_a907_r14860_p6490
mc20_13TeV.545692.MGPy8EG_WpWmhjj_lvqqbbjj_EW8_LO_klp10.deriv.DAOD_PHYS.e8488_a907_r14861_p6490
mc20_13TeV.545692.MGPy8EG_WpWmhjj_lvqqbbjj_EW8_LO_klp10.deriv.DAOD_PHYS.e8488_e8455_a907_r14859_r14919_p6490
mc20_13TeV.545692.MGPy8EG_WpWmhjj_lvqqbbjj_EW8_LO_klp10.deriv.DAOD_PHYS.e8488_e8455_a907_r14860_r14919_p6490
mc20_13TeV.545692.MGPy8EG_WpWmhjj_lvqqbbjj_EW8_LO_klp10.deriv.DAOD_PHYS.e8488_e8455_a907_r14861_r14919_p6490
mc20_13TeV.545693.MGPy8EG_WpWmhjj_lvqqbbjj_EW8_LO_klm5.deriv.DAOD_PHYS.e8488_a907_r14859_p6490
mc20_13TeV.545693.MGPy8EG_WpWmhjj_lvqqbbjj_EW8_LO_klm5.deriv.DAOD_PHYS.e8488_a907_r14860_p6490
mc20_13TeV.545693.MGPy8EG_WpWmhjj_lvqqbbjj_EW8_LO_klm5.deriv.DAOD_PHYS.e8488_a907_r14861_p6490
mc20_13TeV.545693.MGPy8EG_WpWmhjj_lvqqbbjj_EW8_LO_klm5.deriv.DAOD_PHYS.e8488_e8455_a907_r14859_r14919_p6490
mc20_13TeV.545693.MGPy8EG_WpWmhjj_lvqqbbjj_EW8_LO_klm5.deriv.DAOD_PHYS.e8488_e8455_a907_r14860_r14919_p6490
mc20_13TeV.545693.MGPy8EG_WpWmhjj_lvqqbbjj_EW8_LO_klm5.deriv.DAOD_PHYS.e8488_e8455_a907_r14861_r14919_p6490
mc20_13TeV.545694.MGPy8EG_WpWphjj_lvqqbbjj_EW8_LO_klp1.deriv.DAOD_PHYS.e8488_a907_r14859_p6490
mc20_13TeV.545694.MGPy8EG_WpWphjj_lvqqbbjj_EW8_LO_klp1.deriv.DAOD_PHYS.e8488_a907_r14860_p6490
mc20_13TeV.545694.MGPy8EG_WpWphjj_lvqqbbjj_EW8_LO_klp1.deriv.DAOD_PHYS.e8488_a907_r14861_p6490
mc20_13TeV.545694.MGPy8EG_WpWphjj_lvqqbbjj_EW8_LO_klp1.deriv.DAOD_PHYS.e8488_e8455_a907_r14859_r14919_p6490
mc20_13TeV.545694.MGPy8EG_WpWphjj_lvqqbbjj_EW8_LO_klp1.deriv.DAOD_PHYS.e8488_e8455_a907_r14860_r14919_p6490
mc20_13TeV.545694.MGPy8EG_WpWphjj_lvqqbbjj_EW8_LO_klp1.deriv.DAOD_PHYS.e8488_e8455_a907_r14861_r14919_p6490
mc20_13TeV.545695.MGPy8EG_WpWphjj_lvqqbbjj_EW8_LO_klp2.deriv.DAOD_PHYS.e8488_a907_r14859_p6490
mc20_13TeV.545695.MGPy8EG_WpWphjj_lvqqbbjj_EW8_LO_klp2.deriv.DAOD_PHYS.e8488_a907_r14860_p6490
mc20_13TeV.545695.MGPy8EG_WpWphjj_lvqqbbjj_EW8_LO_klp2.deriv.DAOD_PHYS.e8488_a907_r14861_p6490
mc20_13TeV.545695.MGPy8EG_WpWphjj_lvqqbbjj_EW8_LO_klp2.deriv.DAOD_PHYS.e8488_e8455_a907_r14859_r14919_p6490
mc20_13TeV.545695.MGPy8EG_WpWphjj_lvqqbbjj_EW8_LO_klp2.deriv.DAOD_PHYS.e8488_e8455_a907_r14860_r14919_p6490
mc20_13TeV.545695.MGPy8EG_WpWphjj_lvqqbbjj_EW8_LO_klp2.deriv.DAOD_PHYS.e8488_e8455_a907_r14861_r14919_p6490
mc20_13TeV.545696.MGPy8EG_WpWphjj_lvqqbbjj_EW8_LO_klp5.deriv.DAOD_PHYS.e8488_a907_r14859_p6490
mc20_13TeV.545696.MGPy8EG_WpWphjj_lvqqbbjj_EW8_LO_klp5.deriv.DAOD_PHYS.e8488_a907_r14860_p6490
mc20_13TeV.545696.MGPy8EG_WpWphjj_lvqqbbjj_EW8_LO_klp5.deriv.DAOD_PHYS.e8488_a907_r14861_p6490
mc20_13TeV.545696.MGPy8EG_WpWphjj_lvqqbbjj_EW8_LO_klp5.deriv.DAOD_PHYS.e8488_e8455_a907_r14859_r14919_p6490
mc20_13TeV.545696.MGPy8EG_WpWphjj_lvqqbbjj_EW8_LO_klp5.deriv.DAOD_PHYS.e8488_e8455_a907_r14860_r14919_p6490
mc20_13TeV.545696.MGPy8EG_WpWphjj_lvqqbbjj_EW8_LO_klp5.deriv.DAOD_PHYS.e8488_e8455_a907_r14861_r14919_p6490
mc20_13TeV.545697.MGPy8EG_WpWphjj_lvqqbbjj_EW8_LO_klp10.deriv.DAOD_PHYS.e8488_a907_r14859_p6490
mc20_13TeV.545697.MGPy8EG_WpWphjj_lvqqbbjj_EW8_LO_klp10.deriv.DAOD_PHYS.e8488_a907_r14860_p6490
mc20_13TeV.545697.MGPy8EG_WpWphjj_lvqqbbjj_EW8_LO_klp10.deriv.DAOD_PHYS.e8488_a907_r14861_p6490
mc20_13TeV.545697.MGPy8EG_WpWphjj_lvqqbbjj_EW8_LO_klp10.deriv.DAOD_PHYS.e8488_e8455_a907_r14859_r14919_p6490
mc20_13TeV.545697.MGPy8EG_WpWphjj_lvqqbbjj_EW8_LO_klp10.deriv.DAOD_PHYS.e8488_e8455_a907_r14860_r14919_p6490
mc20_13TeV.545697.MGPy8EG_WpWphjj_lvqqbbjj_EW8_LO_klp10.deriv.DAOD_PHYS.e8488_e8455_a907_r14861_r14919_p6490
mc20_13TeV.545698.MGPy8EG_WpWphjj_lvqqbbjj_EW8_LO_klm5.deriv.DAOD_PHYS.e8488_a907_r14859_p6490
mc20_13TeV.545698.MGPy8EG_WpWphjj_lvqqbbjj_EW8_LO_klm5.deriv.DAOD_PHYS.e8488_a907_r14860_p6490
mc20_13TeV.545698.MGPy8EG_WpWphjj_lvqqbbjj_EW8_LO_klm5.deriv.DAOD_PHYS.e8488_a907_r14861_p6490
mc20_13TeV.545698.MGPy8EG_WpWphjj_lvqqbbjj_EW8_LO_klm5.deriv.DAOD_PHYS.e8488_e8455_a907_r14859_r14919_p6490
mc20_13TeV.545698.MGPy8EG_WpWphjj_lvqqbbjj_EW8_LO_klm5.deriv.DAOD_PHYS.e8488_e8455_a907_r14860_r14919_p6490
mc20_13TeV.545698.MGPy8EG_WpWphjj_lvqqbbjj_EW8_LO_klm5.deriv.DAOD_PHYS.e8488_e8455_a907_r14861_r14919_p6490
mc20_13TeV.545699.MGPy8EG_WmWmhjj_lvqqbbjj_EW8_LO_klp1.deriv.DAOD_PHYS.e8488_a907_r14859_p6490
mc20_13TeV.545699.MGPy8EG_WmWmhjj_lvqqbbjj_EW8_LO_klp1.deriv.DAOD_PHYS.e8488_a907_r14860_p6490
mc20_13TeV.545699.MGPy8EG_WmWmhjj_lvqqbbjj_EW8_LO_klp1.deriv.DAOD_PHYS.e8488_a907_r14861_p6490
mc20_13TeV.545699.MGPy8EG_WmWmhjj_lvqqbbjj_EW8_LO_klp1.deriv.DAOD_PHYS.e8488_e8455_a907_r14859_r14919_p6490
mc20_13TeV.545699.MGPy8EG_WmWmhjj_lvqqbbjj_EW8_LO_klp1.deriv.DAOD_PHYS.e8488_e8455_a907_r14860_r14919_p6490
mc20_13TeV.545699.MGPy8EG_WmWmhjj_lvqqbbjj_EW8_LO_klp1.deriv.DAOD_PHYS.e8488_e8455_a907_r14861_r14919_p6490
mc20_13TeV.545700.MGPy8EG_WmWmhjj_lvqqbbjj_EW8_LO_klp2.deriv.DAOD_PHYS.e8488_a907_r14859_p6490
mc20_13TeV.545700.MGPy8EG_WmWmhjj_lvqqbbjj_EW8_LO_klp2.deriv.DAOD_PHYS.e8488_a907_r14860_p6490
mc20_13TeV.545700.MGPy8EG_WmWmhjj_lvqqbbjj_EW8_LO_klp2.deriv.DAOD_PHYS.e8488_a907_r14861_p6490
mc20_13TeV.545700.MGPy8EG_WmWmhjj_lvqqbbjj_EW8_LO_klp2.deriv.DAOD_PHYS.e8488_e8455_a907_r14859_r14919_p6490
mc20_13TeV.545700.MGPy8EG_WmWmhjj_lvqqbbjj_EW8_LO_klp2.deriv.DAOD_PHYS.e8488_e8455_a907_r14860_r14919_p6490
mc20_13TeV.545700.MGPy8EG_WmWmhjj_lvqqbbjj_EW8_LO_klp2.deriv.DAOD_PHYS.e8488_e8455_a907_r14861_r14919_p6490
mc20_13TeV.545701.MGPy8EG_WmWmhjj_lvqqbbjj_EW8_LO_klp5.deriv.DAOD_PHYS.e8488_a907_r14859_p6490
mc20_13TeV.545701.MGPy8EG_WmWmhjj_lvqqbbjj_EW8_LO_klp5.deriv.DAOD_PHYS.e8488_a907_r14860_p6490
mc20_13TeV.545701.MGPy8EG_WmWmhjj_lvqqbbjj_EW8_LO_klp5.deriv.DAOD_PHYS.e8488_a907_r14861_p6490
mc20_13TeV.545701.MGPy8EG_WmWmhjj_lvqqbbjj_EW8_LO_klp5.deriv.DAOD_PHYS.e8488_e8455_a907_r14859_r14919_p6490
mc20_13TeV.545701.MGPy8EG_WmWmhjj_lvqqbbjj_EW8_LO_klp5.deriv.DAOD_PHYS.e8488_e8455_a907_r14860_r14919_p6490
mc20_13TeV.545701.MGPy8EG_WmWmhjj_lvqqbbjj_EW8_LO_klp5.deriv.DAOD_PHYS.e8488_e8455_a907_r14861_r14919_p6490
mc20_13TeV.545702.MGPy8EG_WmWmhjj_lvqqbbjj_EW8_LO_klp10.deriv.DAOD_PHYS.e8488_a907_r14859_p6490
mc20_13TeV.545702.MGPy8EG_WmWmhjj_lvqqbbjj_EW8_LO_klp10.deriv.DAOD_PHYS.e8488_a907_r14860_p6490
mc20_13TeV.545702.MGPy8EG_WmWmhjj_lvqqbbjj_EW8_LO_klp10.deriv.DAOD_PHYS.e8488_a907_r14861_p6490
mc20_13TeV.545702.MGPy8EG_WmWmhjj_lvqqbbjj_EW8_LO_klp10.deriv.DAOD_PHYS.e8488_e8455_a907_r14859_r14919_p6490
mc20_13TeV.545702.MGPy8EG_WmWmhjj_lvqqbbjj_EW8_LO_klp10.deriv.DAOD_PHYS.e8488_e8455_a907_r14860_r14919_p6490
mc20_13TeV.545702.MGPy8EG_WmWmhjj_lvqqbbjj_EW8_LO_klp10.deriv.DAOD_PHYS.e8488_e8455_a907_r14861_r14919_p6490
mc20_13TeV.545703.MGPy8EG_WmWmhjj_lvqqbbjj_EW8_LO_klm5.deriv.DAOD_PHYS.e8488_a907_r14859_p6490
mc20_13TeV.545703.MGPy8EG_WmWmhjj_lvqqbbjj_EW8_LO_klm5.deriv.DAOD_PHYS.e8488_a907_r14860_p6490
mc20_13TeV.545703.MGPy8EG_WmWmhjj_lvqqbbjj_EW8_LO_klm5.deriv.DAOD_PHYS.e8488_a907_r14861_p6490
mc20_13TeV.545703.MGPy8EG_WmWmhjj_lvqqbbjj_EW8_LO_klm5.deriv.DAOD_PHYS.e8488_e8455_a907_r14859_r14919_p6490
mc20_13TeV.545703.MGPy8EG_WmWmhjj_lvqqbbjj_EW8_LO_klm5.deriv.DAOD_PHYS.e8488_e8455_a907_r14860_r14919_p6490
mc20_13TeV.545703.MGPy8EG_WmWmhjj_lvqqbbjj_EW8_LO_klm5.deriv.DAOD_PHYS.e8488_e8455_a907_r14861_r14919_p6490
mc20_13TeV.545704.MGPy8EG_WmWphjj_lvqqbbjj_EW8_LO_klp1.deriv.DAOD_PHYS.e8488_a907_r14859_p6490
mc20_13TeV.545704.MGPy8EG_WmWphjj_lvqqbbjj_EW8_LO_klp1.deriv.DAOD_PHYS.e8488_a907_r14860_p6490
mc20_13TeV.545704.MGPy8EG_WmWphjj_lvqqbbjj_EW8_LO_klp1.deriv.DAOD_PHYS.e8488_a907_r14861_p6490
mc20_13TeV.545704.MGPy8EG_WmWphjj_lvqqbbjj_EW8_LO_klp1.deriv.DAOD_PHYS.e8488_e8455_a907_r14859_r14919_p6490
mc20_13TeV.545704.MGPy8EG_WmWphjj_lvqqbbjj_EW8_LO_klp1.deriv.DAOD_PHYS.e8488_e8455_a907_r14860_r14919_p6490
mc20_13TeV.545704.MGPy8EG_WmWphjj_lvqqbbjj_EW8_LO_klp1.deriv.DAOD_PHYS.e8488_e8455_a907_r14861_r14919_p6490
mc20_13TeV.545705.MGPy8EG_WmWphjj_lvqqbbjj_EW8_LO_klp2.deriv.DAOD_PHYS.e8488_a907_r14859_p6490
mc20_13TeV.545705.MGPy8EG_WmWphjj_lvqqbbjj_EW8_LO_klp2.deriv.DAOD_PHYS.e8488_a907_r14860_p6490
mc20_13TeV.545705.MGPy8EG_WmWphjj_lvqqbbjj_EW8_LO_klp2.deriv.DAOD_PHYS.e8488_a907_r14861_p6490
mc20_13TeV.545705.MGPy8EG_WmWphjj_lvqqbbjj_EW8_LO_klp2.deriv.DAOD_PHYS.e8488_e8455_a907_r14859_r14919_p6490
mc20_13TeV.545705.MGPy8EG_WmWphjj_lvqqbbjj_EW8_LO_klp2.deriv.DAOD_PHYS.e8488_e8455_a907_r14860_r14919_p6490
mc20_13TeV.545705.MGPy8EG_WmWphjj_lvqqbbjj_EW8_LO_klp2.deriv.DAOD_PHYS.e8488_e8455_a907_r14861_r14919_p6490
mc20_13TeV.545706.MGPy8EG_WmWphjj_lvqqbbjj_EW8_LO_klp5.deriv.DAOD_PHYS.e8488_a907_r14859_p6490
mc20_13TeV.545706.MGPy8EG_WmWphjj_lvqqbbjj_EW8_LO_klp5.deriv.DAOD_PHYS.e8488_a907_r14860_p6490
mc20_13TeV.545706.MGPy8EG_WmWphjj_lvqqbbjj_EW8_LO_klp5.deriv.DAOD_PHYS.e8488_a907_r14861_p6490
mc20_13TeV.545706.MGPy8EG_WmWphjj_lvqqbbjj_EW8_LO_klp5.deriv.DAOD_PHYS.e8488_e8455_a907_r14859_r14919_p6490
mc20_13TeV.545706.MGPy8EG_WmWphjj_lvqqbbjj_EW8_LO_klp5.deriv.DAOD_PHYS.e8488_e8455_a907_r14860_r14919_p6490
mc20_13TeV.545706.MGPy8EG_WmWphjj_lvqqbbjj_EW8_LO_klp5.deriv.DAOD_PHYS.e8488_e8455_a907_r14861_r14919_p6490
mc20_13TeV.545707.MGPy8EG_WmWphjj_lvqqbbjj_EW8_LO_klp10.deriv.DAOD_PHYS.e8488_a907_r14859_p6490
mc20_13TeV.545707.MGPy8EG_WmWphjj_lvqqbbjj_EW8_LO_klp10.deriv.DAOD_PHYS.e8488_a907_r14860_p6490
mc20_13TeV.545707.MGPy8EG_WmWphjj_lvqqbbjj_EW8_LO_klp10.deriv.DAOD_PHYS.e8488_a907_r14861_p6490
mc20_13TeV.545707.MGPy8EG_WmWphjj_lvqqbbjj_EW8_LO_klp10.deriv.DAOD_PHYS.e8488_e8455_a907_r14859_r14919_p6490
mc20_13TeV.545707.MGPy8EG_WmWphjj_lvqqbbjj_EW8_LO_klp10.deriv.DAOD_PHYS.e8488_e8455_a907_r14860_r14919_p6490
mc20_13TeV.545707.MGPy8EG_WmWphjj_lvqqbbjj_EW8_LO_klp10.deriv.DAOD_PHYS.e8488_e8455_a907_r14861_r14919_p6490
mc20_13TeV.545708.MGPy8EG_WmWphjj_lvqqbbjj_EW8_LO_klm5.deriv.DAOD_PHYS.e8488_a907_r14859_p6490
mc20_13TeV.545708.MGPy8EG_WmWphjj_lvqqbbjj_EW8_LO_klm5.deriv.DAOD_PHYS.e8488_a907_r14860_p6490
mc20_13TeV.545708.MGPy8EG_WmWphjj_lvqqbbjj_EW8_LO_klm5.deriv.DAOD_PHYS.e8488_a907_r14861_p6490
mc20_13TeV.545708.MGPy8EG_WmWphjj_lvqqbbjj_EW8_LO_klm5.deriv.DAOD_PHYS.e8488_e8455_a907_r14859_r14919_p6490
mc20_13TeV.545708.MGPy8EG_WmWphjj_lvqqbbjj_EW8_LO_klm5.deriv.DAOD_PHYS.e8488_e8455_a907_r14860_r14919_p6490
mc20_13TeV.545708.MGPy8EG_WmWphjj_lvqqbbjj_EW8_LO_klm5.deriv.DAOD_PHYS.e8488_e8455_a907_r14861_r14919_p6490
